1 10 20
100 200 125
201 210 89
900 1000 174
2497 6434 262
3530 7546 262
2736 1282 209
5517 6190 262
361 9074 262
7744 4442 262
9757 5707 262
8176 9941 260
7312 6987 195
945 8404 262
3777 8226 262
86 2374 183
8529 6915 257
40 1913 182
3221 8436 262
589 709 171
9555 3991 262
4328 2162 238
7553 7949 221
9972 6716 260
632 2088 182
6568 1168 262
6635 5954 262
5995 2422 238
1037 1408 182
5712 8746 262
9662 4673 262
1813 2697 209
4234 2593 238
3389 8113 262
6508 4607 262
6402 9634 260
8752 8091 234
5094 5467 192
5098 1685 238
6215 80 262
6542 2101 262
429 1575 182
7450 5396 262
8474 2384 262
1087 6918 262
2100 5160 238
6991 6185 257
2579 5600 238
6447 1307 262
74592 14 340
7015 8549 252
9900 2452 262
5490 8584 262
7370 1842 262
3248 9472 262
3634 5196 238
8558 6406 257
1484 2360 183
615 9842 262
9001 2404 262
8236 4153 262
7429 4569 262
7507 7428 177
7990 3958 262
7025 7378 195
5867 1442 238
8265 2018 262
1412 6648 262
9495 739 262
4010 8217 262
6054 809 238
5629 2510 238
5058 8924 262
6784 9871 260
1142 6251 262
4450 4317 215
6970 1771 262
6907 5642 262
6707 707 262
4905 442 238
8009 4732 262
3450 4611 238
6365 271 262
9675 2476 262
2268 157 183
88 2371 183
7890 3979 262
2117 8473 262
8241 3854 262
4151 1933 238
6437 9713 260
7710 5576 262
9826 4413 262
928 4444 238
5638 6071 218
3396 4381 238
6652 8021 257
4754 9183 262
8621 2234 262
7765 5526 262
9754 2708 262
9674 4562 262
5455 9431 262
8410 4167 262
5568 4948 236
1568 5480 238
9293 659 262
3045 5314 238
8566 8503 203
9307 550 262
5102 7810 262
4941 7980 262
5743 1635 238
2531 210 209
6686 115 262
1919 3921 238
9592 9807 198
5730 503 238
6487 3744 262
4126 1210 238
9210 9031 198
4835 5037 210
230 2855 209
5303 3523 238
1992 6953 262
5265 6952 262
2916 9423 262
3675 137 217
4223 3187 238
4849 4217 215
9208 5536 262
6826 5561 262
7381 8034 252
9063 3640 262
5659 1048 238
1460 3866 238
1226 4335 238
4082 7680 262
4233 3820 202
1955 7055 262
2523 4452 238
5751 1409 238
2223 8546 262
1749 4067 238
4341 899 238
3708 7079 262
64 1319 182
3091 6022 238
4319 8297 262
2429 9553 262
9694 6992 260
2958 2463 217
6309 7237 257
